{
  "status":"success",
  "status_code": 200,
  "appointments":{
    "appointment_id":"",
    "client_id":"",
    "client_name":"",
    "stylist_id":"",
    "stylist_name":"",
    "remarks":"",
    "services":"",
    "reason":"",
    "status":"REQUESTED",
    "appointment_time":"2018-06-11 11:00:00",
    "created_on":"2018-06-10 11:00:00",
    "updated_on":"2018-06-10 11:00:00"
  }
}