{
	"profile":{
		"0":{
			"label":"Username",
			"type":"text",
			"is_required":1,
			"max_length":25,
			"min_length":4,
		},
		"1":{
			"label":"Email",
			"type":"text",
			"is_required":1,
			"email_validation":1
		},
		"2":{
			"label":"Phone No.",
			"type":"text",
			"is_required":1,
			"phone_validation":1
		},
		"3":{
			"label":"Gender",
			"type":"radio",
			"is_required":1,
			"option":"Male,Female"
		},
		"3":{
			"label":"Date of Birth",
			"type":"date",
			"is_required":1
		}
  	},
  	"user_type":{
	  	"1":{
	  		"type":"Studen",
	  	},
	  	"2":{
	  		"type":"Member",
	  	},
	  	"3":{
	  		"type":"Guest",
	  	}
	},
	"forms":{
		"1":{
			"0":{
				"label":"School/College Name",
				"type":"text",
				"is_required":1
			},
			"1":{
				"label":"Class/Branch",
				"type":"text",
				"is_required":0
			},
			"2":{
				"label":"School/College Address",
				"type":"text",
				"is_required":0
			},
		},
		"2":{
			"0":{
				"label":"Occupation",
				"type":"text",
				"is_required":1
			},
			"1":{
				"label":"Address",
				"type":"textarea",
				"is_required":1
			},
			"2":{
				"label":"Membership Type",
				"type":"select",
				"is_required":1,
				"option":"One Year,Lifetime"
			}
		},
		"3":{
			"0":{
				"label":"Occupation",
				"type":"text",
				"is_required":0
			},
			"1":{
				"label":"Address",
				"type":"textarea",
				"is_required":0
			}
		}
	}
}