{
  "status":"success",
  "status_code": 200,
  "message":"List of invocie",
  "invoices":{
    "<invoice_id>":{
      "invoice_id":"",
      "invoice_no":"",
      "invoice_date":"",
      "total_amount":"450.00",
      "paid_amount":"450.00",
      "status":"ACTIVE|INACTIVE",
      "payment_status":"SUCCESS"
    },
    "<invoice_id>":{
      "invoice_id":"",
      "invoice_no":"",
      "invoice_date":"",
      "total_amount":"450.00",
      "paid_amount":"450.00",
      "status":"ACTIVE|INACTIVE",
      "payment_status":"SUCCESS"
    }
  }
}