{
  "status":"success",
  "status_code": 200,
  "message":"favourite list",
  "lsit":{
    "0":{
      "stylist_id":"",
      "stylist_name":"",
      "stylist_photo":""
    },
    "1":{
      "stylist_id":"",
      "stylist_name":"",
      "stylist_photo":""
    }
  }
}