{
  "status":"success",
  "status_code": 200,
  "message":"Stylist Profile",
  "profile":{
    "first_name":"",
    "last_name":"",
    "gender":"",
    "date_of_birth":"2006-05-15",
    "address_1":"",
    "address_2":"",
    "city":"",
    "state":"",
    "country":"",
    "pincode":"",
    "status":"ACTIVE",
    "last_updated":"2018-06-11 11:00:00"
  },
  "profile_public":{
    "shop_name":"",
    "short_descp":"",
    "long_descp":"",
    "specialties":"",
    "skills":"",
    "experience":"",
    "latitude":"",
    "longitude":"",
    "status":"ACTIVE",
    "last_updated":"2018-06-11 11:00:00"
  },
  "timing":{
    "0":{
      "day":"Monday",
      "opening_time":"10:30 AM",
      "closing_time":"08:30 PM",
      "status":"ACTIVE",
      "last_updated":"2018-06-11 11:00:00"
    },
    "1":{
      "day":"Tuesday",
      "opening_time":"10:30 AM",
      "closing_time":"08:30 PM",
      "status":"ACTIVE",
      "last_updated":"2018-06-11 11:00:00"
    }
  },
  "services":{
    "<service_id>":{
      "service_id":"",
      "service_name":"",
      "service_descp":"",
      "service_duration":"30",
      "service_cost":"350.00",
      "tax_details":{
        "<tax_id>":{
          "tax_name":"",
          "tax_code":"",
          "tax_perc":""
        }
      },
      "status":"ACTIVE",
      "last_updated":"2018-06-11 11:00:00"
    },
    "<service_id>":{
      "service_id":"",
      "service_name":"",
      "service_descp":"",
      "service_duration":"45",
      "service_cost":"450.00",
      "tax_details":{
        "<tax_id>":{
          "tax_name":"",
          "tax_code":"",
          "tax_perc":""
        }
      },
      "status":"ACTIVE",
      "last_updated":"2018-06-11 11:00:00"
    }
  }
}